Library\Bee\artifacts\mvdfrm\Unity.PlasticSCM.Editor.ref.dll_257AEB342BE77856.mvfrm
Library\Bee\artifacts\mvdfrm\UnityEditor.TestRunner.ref.dll_193EC4CE382CBFB3.mvfrm
Library\Bee\artifacts\mvdfrm\UnityEditor.UI.ref.dll_4C98D3F7040CD4F5.mvfrm
Library\Bee\artifacts\mvdfrm\UnityEngine.TestRunner.ref.dll_E55D0F7C63F01D9E.mvfrm
Library\Bee\artifacts\mvdfrm\UnityEngine.UI.ref.dll_08FEAA520A2EFD60.mvfrm
Library\Bee\artifacts\mvdfrm\UnityEditor.Graphs.dll_416DA908FF05F3E4.mvfrm
Library\Bee\artifacts\mvdfrm\UnityEditor.CoreModule.dll_60203D133EDD9BB2.mvfrm
Library\Bee\artifacts\mvdfrm\UnityEditor.DeviceSimulatorModule.dll_94E36BD41BD39EAF.mvfrm
Library\Bee\artifacts\mvdfrm\UnityEditor.DiagnosticsModule.dll_DBB4629166720D3D.mvfrm
Library\Bee\artifacts\mvdfrm\UnityEditor.dll_E3EFC412582F7F43.mvfrm
Library\Bee\artifacts\mvdfrm\UnityEditor.GraphViewModule.dll_90E3E2C956866B74.mvfrm
Library\Bee\artifacts\mvdfrm\UnityEditor.PackageManagerUIModule.dll_B4E76B2171193E8E.mvfrm
Library\Bee\artifacts\mvdfrm\UnityEditor.QuickSearchModule.dll_66C3E39EBF490996.mvfrm
Library\Bee\artifacts\mvdfrm\UnityEditor.SceneTemplateModule.dll_A64EA6F38AD2F6D7.mvfrm
Library\Bee\artifacts\mvdfrm\UnityEditor.TextCoreFontEngineModule.dll_C1DD67EA135C5CF0.mvfrm
Library\Bee\artifacts\mvdfrm\UnityEditor.TextCoreTextEngineModule.dll_09C59E5BA2E0160E.mvfrm
Library\Bee\artifacts\mvdfrm\UnityEditor.UIBuilderModule.dll_E56C8FE5C93EE4A8.mvfrm
Library\Bee\artifacts\mvdfrm\UnityEditor.UIElementsModule.dll_D3872C516A8721AE.mvfrm
Library\Bee\artifacts\mvdfrm\UnityEditor.UIElementsSamplesModule.dll_BE4B7DA1C709F49F.mvfrm
Library\Bee\artifacts\mvdfrm\UnityEditor.UIServiceModule.dll_1E5EA148B27634C2.mvfrm
Library\Bee\artifacts\mvdfrm\UnityEditor.UnityConnectModule.dll_E78452083C8E2368.mvfrm
Library\Bee\artifacts\mvdfrm\UnityEngine.AccessibilityModule.dll_D8F4128A8B491E74.mvfrm
Library\Bee\artifacts\mvdfrm\UnityEngine.AIModule.dll_0AE1481B1E29E7C6.mvfrm
Library\Bee\artifacts\mvdfrm\UnityEngine.AndroidJNIModule.dll_51D01524B3A69084.mvfrm
Library\Bee\artifacts\mvdfrm\UnityEngine.AnimationModule.dll_5F695EF230E3401A.mvfrm
Library\Bee\artifacts\mvdfrm\UnityEngine.ARModule.dll_C4540D1E7B47468F.mvfrm
Library\Bee\artifacts\mvdfrm\UnityEngine.AssetBundleModule.dll_AAAD169021AFBE88.mvfrm
Library\Bee\artifacts\mvdfrm\UnityEngine.AudioModule.dll_C9C908061FD00A8C.mvfrm
Library\Bee\artifacts\mvdfrm\UnityEngine.AutoStreamingModule.dll_F561CC425DD7B149.mvfrm
Library\Bee\artifacts\mvdfrm\UnityEngine.ClothModule.dll_30B16500F9ECE970.mvfrm
Library\Bee\artifacts\mvdfrm\UnityEngine.ClusterInputModule.dll_6720C71DEE15F62E.mvfrm
Library\Bee\artifacts\mvdfrm\UnityEngine.ClusterRendererModule.dll_9A902E458B8EAC33.mvfrm
Library\Bee\artifacts\mvdfrm\UnityEngine.CoreModule.dll_83411065E6E306DD.mvfrm
Library\Bee\artifacts\mvdfrm\UnityEngine.CrashReportingModule.dll_EC5042602F9E0695.mvfrm
Library\Bee\artifacts\mvdfrm\UnityEngine.DirectorModule.dll_244EA00025CFA43A.mvfrm
Library\Bee\artifacts\mvdfrm\UnityEngine.dll_16940AEAB6A30C28.mvfrm
Library\Bee\artifacts\mvdfrm\UnityEngine.DSPGraphModule.dll_29A001699830755B.mvfrm
Library\Bee\artifacts\mvdfrm\UnityEngine.GameCenterModule.dll_7C1D5F3F79E78175.mvfrm
Library\Bee\artifacts\mvdfrm\UnityEngine.GIModule.dll_A31D9128B9D8CFE0.mvfrm
Library\Bee\artifacts\mvdfrm\UnityEngine.GridModule.dll_60B22C53FF379CD4.mvfrm
Library\Bee\artifacts\mvdfrm\UnityEngine.HotReloadModule.dll_E0B21CF80C165B9C.mvfrm
Library\Bee\artifacts\mvdfrm\UnityEngine.ImageConversionModule.dll_06822BF60DB36427.mvfrm
Library\Bee\artifacts\mvdfrm\UnityEngine.IMGUIModule.dll_0228A76CE6019E6D.mvfrm
Library\Bee\artifacts\mvdfrm\UnityEngine.InputLegacyModule.dll_3BF231AEB9A17479.mvfrm
Library\Bee\artifacts\mvdfrm\UnityEngine.InputModule.dll_303ECFB696082F30.mvfrm
Library\Bee\artifacts\mvdfrm\UnityEngine.JSONSerializeModule.dll_390B9BC68A847EFE.mvfrm
Library\Bee\artifacts\mvdfrm\UnityEngine.LocalizationModule.dll_A56D91708591E927.mvfrm
Library\Bee\artifacts\mvdfrm\UnityEngine.NVIDIAModule.dll_3E2C514622CD68E9.mvfrm
Library\Bee\artifacts\mvdfrm\UnityEngine.ParticleSystemModule.dll_3F628BAC9DAF9223.mvfrm
Library\Bee\artifacts\mvdfrm\UnityEngine.PerformanceReportingModule.dll_7231319CEB4EB89C.mvfrm
Library\Bee\artifacts\mvdfrm\UnityEngine.Physics2DModule.dll_AC0F4EE2D1E037AF.mvfrm
Library\Bee\artifacts\mvdfrm\UnityEngine.PhysicsModule.dll_A455C7D90B8BBEDD.mvfrm
Library\Bee\artifacts\mvdfrm\UnityEngine.ProfilerModule.dll_5694D936BF292B47.mvfrm
Library\Bee\artifacts\mvdfrm\UnityEngine.RuntimeInitializeOnLoadManagerInitializerModule.dll_C066A3DA264F8678.mvfrm
Library\Bee\artifacts\mvdfrm\UnityEngine.ScreenCaptureModule.dll_52F3494B9EF0AB60.mvfrm
Library\Bee\artifacts\mvdfrm\UnityEngine.SharedInternalsModule.dll_8A936ACB84E15F77.mvfrm
Library\Bee\artifacts\mvdfrm\UnityEngine.SpriteMaskModule.dll_6549D1CF9B5716EF.mvfrm
Library\Bee\artifacts\mvdfrm\UnityEngine.SpriteShapeModule.dll_C40E43EAD751F692.mvfrm
Library\Bee\artifacts\mvdfrm\UnityEngine.StreamingModule.dll_13FE4C42806AF758.mvfrm
Library\Bee\artifacts\mvdfrm\UnityEngine.SubstanceModule.dll_F0A9608BCBBDF566.mvfrm
Library\Bee\artifacts\mvdfrm\UnityEngine.SubsystemsModule.dll_CFF73831699EFF02.mvfrm
Library\Bee\artifacts\mvdfrm\UnityEngine.TerrainModule.dll_BE9C4347E14A07CB.mvfrm
Library\Bee\artifacts\mvdfrm\UnityEngine.TerrainPhysicsModule.dll_3FDD347FB6F28CB0.mvfrm
Library\Bee\artifacts\mvdfrm\UnityEngine.TextCoreFontEngineModule.dll_403CE33D265A1BBB.mvfrm
Library\Bee\artifacts\mvdfrm\UnityEngine.TextCoreTextEngineModule.dll_882519AEB5DDD4D9.mvfrm
Library\Bee\artifacts\mvdfrm\UnityEngine.TextRenderingModule.dll_7C32BB5656282B55.mvfrm
Library\Bee\artifacts\mvdfrm\UnityEngine.TilemapModule.dll_5D98AAC8F906E8D4.mvfrm
Library\Bee\artifacts\mvdfrm\UnityEngine.TLSModule.dll_B9D155753F239071.mvfrm
Library\Bee\artifacts\mvdfrm\UnityEngine.UIElementsModule.dll_D43599996CCB3AF9.mvfrm
Library\Bee\artifacts\mvdfrm\UnityEngine.UIElementsNativeModule.dll_FF611FB6E291AEB0.mvfrm
Library\Bee\artifacts\mvdfrm\UnityEngine.UIModule.dll_0654E6487A70ED72.mvfrm
Library\Bee\artifacts\mvdfrm\UnityEngine.UIWidgetsModule.dll_B7FDC4BE818CA921.mvfrm
Library\Bee\artifacts\mvdfrm\UnityEngine.UmbraModule.dll_449DB41EACF6B5FF.mvfrm
Library\Bee\artifacts\mvdfrm\UnityEngine.UNETModule.dll_15E7584F33F1FC56.mvfrm
Library\Bee\artifacts\mvdfrm\UnityEngine.UnityAnalyticsCommonModule.dll_0D6FEEE1053756FA.mvfrm
Library\Bee\artifacts\mvdfrm\UnityEngine.UnityAnalyticsModule.dll_5F01FC7649D6E41F.mvfrm
Library\Bee\artifacts\mvdfrm\UnityEngine.UnityConnectModule.dll_D4E3D61737162413.mvfrm
Library\Bee\artifacts\mvdfrm\UnityEngine.UnityCurlModule.dll_92860023A0F73207.mvfrm
Library\Bee\artifacts\mvdfrm\UnityEngine.UnityTestProtocolModule.dll_7A0E3394210549F5.mvfrm
Library\Bee\artifacts\mvdfrm\UnityEngine.UnityWebRequestAssetBundleModule.dll_152B58B5ED868630.mvfrm
Library\Bee\artifacts\mvdfrm\UnityEngine.UnityWebRequestAudioModule.dll_EA2D857B71B98334.mvfrm
Library\Bee\artifacts\mvdfrm\UnityEngine.UnityWebRequestModule.dll_182133A018A7FEA6.mvfrm
Library\Bee\artifacts\mvdfrm\UnityEngine.UnityWebRequestTextureModule.dll_E8305AF379A74789.mvfrm
Library\Bee\artifacts\mvdfrm\UnityEngine.UnityWebRequestWWWModule.dll_52E75F0AA59D9145.mvfrm
Library\Bee\artifacts\mvdfrm\UnityEngine.VehiclesModule.dll_9C11997F9FF973D5.mvfrm
Library\Bee\artifacts\mvdfrm\UnityEngine.VFXModule.dll_3AAFEDE41590F9DE.mvfrm
Library\Bee\artifacts\mvdfrm\UnityEngine.VideoModule.dll_EED28C70E2622631.mvfrm
Library\Bee\artifacts\mvdfrm\UnityEngine.VirtualTexturingModule.dll_23EDD425BB402F3B.mvfrm
Library\Bee\artifacts\mvdfrm\UnityEngine.VRModule.dll_59270CCE1C2B72EA.mvfrm
Library\Bee\artifacts\mvdfrm\UnityEngine.WindModule.dll_F98FEB8E78198546.mvfrm
Library\Bee\artifacts\mvdfrm\UnityEngine.XRModule.dll_8BE5CFD2A565C048.mvfrm
Library\Bee\artifacts\mvdfrm\UnityEditor.WindowsStandalone.Extensions.dll_9D3C9D038B12B30E.mvfrm
Library\Bee\artifacts\mvdfrm\Unity.Plastic.Antlr3.Runtime.dll_F1580C61C649D6E4.mvfrm
Library\Bee\artifacts\mvdfrm\Unity.Plastic.Newtonsoft.Json.dll_3B920D6359273611.mvfrm
Library\Bee\artifacts\mvdfrm\Unity.VisualScripting.IonicZip.dll_93023B102B37EDA1.mvfrm
Library\Bee\artifacts\mvdfrm\Unity.VisualScripting.YamlDotNet.dll_B8EFFC544322A42B.mvfrm
Library\Bee\artifacts\mvdfrm\Unity.VisualScripting.TextureAssets.dll_500E25A803F00223.mvfrm
Library\Bee\artifacts\mvdfrm\Unity.VisualScripting.Antlr3.Runtime.dll_6A5D233573EBB44A.mvfrm